Fifo/fifo.vcd
$date
	Wed Jun 26 17:39:33 2019
$end
$version
	Icarus Verilog
$end
$timescale
	1s
$end
$scope module fifo_tb $end
$var wire 1 ! fifo_wr $end
$var wire 1 " fifo_rd $end
$var wire 1 # fifo_full $end
$var wire 1 $ fifo_empty $end
$var wire 1 % err_full $end
$var wire 6 & data_out [5:0] $end
$var wire 6 ' data_in [5:0] $end
$var wire 1 ( clk $end
$var wire 1 ) RESET_L $end
$scope module fifo $end
$var wire 1 * ok $end
$var wire 1 + nada $end
$var wire 1 ! fifo_wr $end
$var wire 1 " fifo_rd $end
$var wire 6 , data_out [5:0] $end
$var wire 6 - data_in [5:0] $end
$var wire 1 ( clk $end
$var wire 1 ) RESET_L $end
$var reg 8 . counter [7:0] $end
$var reg 1 / err $end
$var reg 1 % err_full $end
$var reg 1 $ fifo_empty $end
$var reg 1 # fifo_full $end
$var reg 1 0 rd $end
$var reg 8 1 rd_ptr [7:0] $end
$var reg 1 2 wr $end
$var reg 8 3 wr_ptr [7:0] $end
$scope module lul $end
$var wire 3 4 address_read [2:0] $end
$var wire 3 5 address_write [2:0] $end
$var wire 1 0 read $end
$var wire 1 2 write $end
$var wire 6 6 data [5:0] $end
$var wire 1 ( clk $end
$var wire 1 ) RESET_L $end
$var reg 6 7 data_out [5:0] $end
$var reg 1 + err $end
$var reg 1 * valid_out $end
$var integer 32 8 i [31:0] $end
$upscope $end
$upscope $end
$scope module prob $end
$var wire 6 9 data_out [5:0] $end
$var wire 1 % err_full $end
$var wire 1 $ fifo_empty $end
$var wire 1 # fifo_full $end
$var reg 1 ) RESET_L $end
$var reg 1 ( clk $end
$var reg 6 : data_in [5:0] $end
$var reg 1 " fifo_rd $end
$var reg 1 ! fifo_wr $end
$upscope $end
$upscope $end
$enddefinitions $end
#0
$dumpvars
b0 :
b0 9
b1000 8
b0 7
b0 6
bx 5
bx 4
bx 3
02
bx 1
00
x/
bx .
b0 -
b0 ,
0+
0*
0)
0(
b0 '
b0 &
0%
1$
0#
0"
0!
$end
#2
b0 5
b0 4
0/
b0 .
b0 3
b0 1
1)
b1000 8
1(
#4
0(
#6
12
b10010 '
b10010 -
b10010 6
b10010 :
1!
1(
#8
0(
#10
b1 5
10
0$
02
b1 3
b1 .
1"
0!
1(
#12
0(
#14
12
00
1$
b1 4
b100100 '
b100100 -
b100100 6
b100100 :
0"
1!
b0 .
b1 1
1*
b10010 &
b10010 ,
b10010 7
b10010 9
1(
#16
0(
#18
0$
12
b10 5
b1 .
b10 3
b110110 '
b110110 -
b110110 6
b110110 :
0*
1(
#20
0(
#22
12
0$
b11 5
b10100 '
b10100 -
b10100 6
b10100 :
b10 .
b11 3
1(
#24
0(
#26
12
0$
b100 5
b11 .
b100 3
b110000 '
b110000 -
b110000 6
b110000 :
1(
#28
0(
#30
10
02
0$
b101 5
b0 '
b0 -
b0 6
b0 :
1"
0!
b100 .
b101 3
1(
#32
0(
#34
10
0$
b10 4
b11 .
b10 1
1*
b100100 &
b100100 ,
b100100 7
b100100 9
1(
#36
0(
#38
10
0$
b11 4
b10 .
b11 1
b110110 &
b110110 ,
b110110 7
b110110 9
1(
#40
0(
#42
10
0$
b100 4
b1 .
b100 1
b10100 &
b10100 ,
b10100 7
b10100 9
1(
#44
0(
#46
12
00
1$
b101 4
b110010 '
b110010 -
b110010 6
b110010 :
1!
0"
b0 .
b101 1
b110000 &
b110000 ,
b110000 7
b110000 9
1(
#48
0(
#50
0$
12
b110 5
b1 .
b110 3
b10100 '
b10100 -
b10100 6
b10100 :
0*
1(
#52
0(
#54
12
0$
b111 5
b110101 '
b110101 -
b110101 6
b110101 :
b10 .
b111 3
1(
#56
0(
#58
12
0$
b0 5
b11 .
b0 3
b10101 '
b10101 -
b10101 6
b10101 :
1(
#60
0(
#62
12
0$
b1 5
b10110 '
b10110 -
b10110 6
b10110 :
b100 .
b1 3
1(
#64
0(
#66
12
0$
b10 5
b101 .
b10 3
b100111 '
b100111 -
b100111 6
b100111 :
1(
#68
0(
#70
12
0$
b11 5
b111111 '
b111111 -
b111111 6
b111111 :
b110 .
b11 3
1(
#72
0(
#74
12
0$
b100 5
b111 .
b100 3
b10 '
b10 -
b10 6
b10 :
1(
#76
0(
#78
1#
02
0$
b101 5
0!
b110000 '
b110000 -
b110000 6
b110000 :
b1000 .
b101 3
1(
#80
0(
#82
10
1#
0$
b0 '
b0 -
b0 6
b0 :
1"
b0 &
b0 ,
b0 7
b0 9
1(
#84
0(
#86
10
0#
0$
b110 4
b111 .
b110 1
1*
b110010 &
b110010 ,
b110010 7
b110010 9
1(
#88
0(
#90
10
0$
b111 4
b110 .
b111 1
b10100 &
b10100 ,
b10100 7
b10100 9
1(
#92
0(
#94
10
0$
b0 4
b101 .
b0 1
b110101 &
b110101 ,
b110101 7
b110101 9
1(
#96
0(
#98
10
0$
b1 4
b100 .
b1 1
b10101 &
b10101 ,
b10101 7
b10101 9
1(
#100
0(
#102
10
0$
b10 4
b11 .
b10 1
b10110 &
b10110 ,
b10110 7
b10110 9
1(
#104
0(
#106
10
0$
b11 4
b10 .
b11 1
b100111 &
b100111 ,
b100111 7
b100111 9
1(
#108
0(
#110
10
0$
b100 4
b1 .
b100 1
b111111 &
b111111 ,
b111111 7
b111111 9
1(
#112
0(
#114
1%
10
1$
b101 4
b0 .
b101 1
b10 &
b10 ,
b10 7
b10 9
1(
#116
0(
#118
1#
0$
0%
10
b110 4
b11111111 .
b110 1
b110010 &
b110010 ,
b110010 7
b110010 9
1(
#120
0(
#122
b111 4
12
1%
10
1#
0$
b11111110 .
b111 1
1!
b10100 &
b10100 ,
b10100 7
b10100 9
1(
#124
0(
#126
b0 4
1%
10
12
1#
0$
b110 5
b1 '
b1 -
b1 6
b1 :
b0 1
b11111101 .
b110 3
b110101 &
b110101 ,
b110101 7
b110101 9
1(
#128
0(
#130
b111 5
1%
10
12
1#
0$
b1 4
b111 3
b11111110 .
b1 1
b10 '
b10 -
b10 6
b10 :
b10101 &
b10101 ,
b10101 7
b10101 9
1(
#132
0(
#134
b10 4
1%
10
12
1#
0$
b0 5
b11 '
b11 -
b11 6
b11 :
b10 1
b11111101 .
b0 3
b10110 &
b10110 ,
b10110 7
b10110 9
1(
#136
0(
#138
b1 5
1%
10
12
1#
0$
b11 4
b1 3
b11111110 .
b11 1
b100 '
b100 -
b100 6
b100 :
b100111 &
b100111 ,
b100111 7
b100111 9
1(
#140
0(
#142
b100 4
1%
10
12
1#
0$
b10 5
b101 '
b101 -
b101 6
b101 :
b100 1
b11111101 .
b10 3
b111111 &
b111111 ,
b111111 7
b111111 9
1(
#144
0(
#146
b11 5
1%
10
12
1#
0$
b101 4
b11 3
b11111110 .
b101 1
b110 '
b110 -
b110 6
b110 :
b10 &
b10 ,
b10 7
b10 9
1(
#148
0(
#150
b110 4
1%
10
12
1#
0$
b100 5
b111 '
b111 -
b111 6
b111 :
b110 1
b11111101 .
b100 3
b0 &
b0 ,
b0 7
b0 9
1(
#152
0(
#154
b101 5
1%
10
12
1#
0$
b111 4
b101 3
b11111110 .
b111 1
b1000 '
b1000 -
b1000 6
b1000 :
b1 &
b1 ,
b1 7
b1 9
1(
#156
0(
#158
b0 4
1%
10
12
1#
0$
b110 5
b1001 '
b1001 -
b1001 6
b1001 :
b0 1
b11111101 .
b110 3
b10 &
b10 ,
b10 7
b10 9
1(
#160
0(
#162
b111 5
1%
10
12
1#
0$
b1 4
b111 3
b11111110 .
b1 1
b1010 '
b1010 -
b1010 6
b1010 :
b11 &
b11 ,
b11 7
b11 9
1(
#164
0(
#166
b10 4
1%
10
12
1#
0$
b0 5
b10 1
b11111101 .
b0 3
b100 &
b100 ,
b100 7
b100 9
1(
