Fifo/fifo.vcd
$date
	Tue Jun 25 21:11:22 2019
$end
$version
	Icarus Verilog
$end
$timescale
	1s
$end
$scope module fifo_tb $end
$var wire 1 ! fifo_wr $end
$var wire 1 " fifo_rd $end
$var wire 1 # fifo_full $end
$var wire 1 $ fifo_empty $end
$var wire 1 % err_full $end
$var wire 6 & data_out [5:0] $end
$var wire 6 ' data_in [5:0] $end
$var wire 1 ( clk $end
$var wire 1 ) RESET_L $end
$scope module fifo $end
$var wire 1 * ok $end
$var wire 1 + nada $end
$var wire 1 ! fifo_wr $end
$var wire 1 " fifo_rd $end
$var wire 6 , data_out [5:0] $end
$var wire 6 - data_in [5:0] $end
$var wire 1 ( clk $end
$var wire 1 ) RESET_L $end
$var reg 8 . counter [7:0] $end
$var reg 1 / err $end
$var reg 1 % err_full $end
$var reg 1 $ fifo_empty $end
$var reg 1 # fifo_full $end
$var reg 1 0 rd $end
$var reg 8 1 rd_ptr [7:0] $end
$var reg 1 2 wr $end
$var reg 8 3 wr_ptr [7:0] $end
$scope module lul $end
$var wire 3 4 address_read [2:0] $end
$var wire 3 5 address_write [2:0] $end
$var wire 1 0 read $end
$var wire 1 2 write $end
$var wire 6 6 data [5:0] $end
$var wire 1 ( clk $end
$var wire 1 ) RESET_L $end
$var reg 6 7 data_out [5:0] $end
$var reg 1 + err $end
$var reg 1 * valid_out $end
$var integer 32 8 i [31:0] $end
$upscope $end
$upscope $end
$scope module prob $end
$var wire 6 9 data_out [5:0] $end
$var wire 1 % err_full $end
$var wire 1 $ fifo_empty $end
$var wire 1 # fifo_full $end
$var reg 1 ) RESET_L $end
$var reg 1 ( clk $end
$var reg 6 : data_in [5:0] $end
$var reg 1 " fifo_rd $end
$var reg 1 ! fifo_wr $end
$upscope $end
$upscope $end
$enddefinitions $end
#0
$dumpvars
b0 :
b0 9
b1000 8
b0 7
b0 6
bx 5
bx 4
bx 3
02
bx 1
00
x/
bx .
b0 -
b0 ,
0+
0*
0)
0(
b0 '
b0 &
x%
1$
0#
0"
0!
$end
#2
b0 5
b0 4
0/
b0 .
b0 3
b0 1
1)
b1000 8
1(
#4
0(
#6
12
b10010 '
b10010 -
b10010 6
b10010 :
1!
1(
#8
0(
#10
b1 5
10
0$
02
b1 3
b1 .
1"
0!
1(
#12
0(
#14
12
00
1$
b1 4
b100100 '
b100100 -
b100100 6
b100100 :
0"
1!
b0 .
b1 1
1*
b10010 &
b10010 ,
b10010 7
b10010 9
1(
#16
0(
#18
0$
12
b10 5
b1 .
b10 3
b110110 '
b110110 -
b110110 6
b110110 :
0*
1(
#20
0(
#22
12
0$
b11 5
b10100 '
b10100 -
b10100 6
b10100 :
b10 .
b11 3
1(
#24
0(
#26
12
0$
b100 5
b11 .
b100 3
b110000 '
b110000 -
b110000 6
b110000 :
1(
#28
0(
#30
10
02
0$
b101 5
1"
0!
b100 .
b101 3
1(
#32
0(
#34
10
0$
b10 4
b11 .
b10 1
1*
b100100 &
b100100 ,
b100100 7
b100100 9
1(
#36
0(
#38
10
0$
b11 4
b10 .
b11 1
b110110 &
b110110 ,
b110110 7
b110110 9
1(
#40
0(
#42
10
0$
b100 4
b1 .
b100 1
b10100 &
b10100 ,
b10100 7
b10100 9
1(
#44
0(
#46
1%
10
1$
b101 4
b0 .
b101 1
b110000 &
b110000 ,
b110000 7
b110000 9
1(
